{
  "likes": [{ "identity_id": null }],
  "reports": [{ "identity_id": null, "type": "bad_info" }],
  "type": "grandis",
  "is_discounted": false,
  "is_promoted": false,
  "_id": "5d26d07dffc45556ec607b88",
  "provenance_id": "8251j4yT",
  "provenance": "shopgun",
  "validFrom": "2019-07-06T22:00:00.000Z",
  "validThrough": "2019-07-13T21:59:59.000Z",
  "dealer": "Obs!",
  "title": "Grill perfekt pizzabunn",
  "description": "2 x 180 g. Pr kg 69,17",
  "brand": null,
  "href": "https://shopgun.com/publications/paged/ef43jKF/pages/9",
  "imageUrl": "https://d3ikkoqs9ddhdl.cloudfront.net/img/offer/crop/zoom/8251j4yT.jpg?m=0",
  "uri": "shopgun:product:8251j4yT",
  "pricing": { "price": 24.9, "pre_price": null, "currency": "NOK" },
  "quantity": {
    "unit": {
      "symbol": "g",
      "type": "quantity",
      "si": { "symbol": "kg", "factor": 0.001 }
    },
    "size": { "min": 69.17, "max": 360 },
    "pieces": { "min": null, "max": null }
  },
  "piece_value": null,
  "quantity_value": null,
  "unit": { "symbol": "g", "si": { "symbol": "kg", "factor": 0.001 } },
  "size": { "from": 180, "to": 180 },
  "pieces": { "from": 1, "to": 1 }
}
